Purchased bikes classification
…
In here are classified the observations: correct-incorrect.

test_predictions <-
  final_res %>%
    collect_predictions() %>%
    mutate(correct = case_when(purchased_bike == .pred_class ~ "Correct",
                               TRUE ~ "Incorrect")) #New column
test_predictions #Predictions on the test set

## # A tibble: 249 x 8
##    id      .pred_No .pred_Yes  .row .pred_class purchased_bike .config   correct
##    <chr>      <dbl>     <dbl> <int> <fct>       <fct>          <chr>     <chr>  
##  1 train/~    0.487     0.513     2 Yes         No             Preproce~ Incorr~
##  2 train/~    0.249     0.751     8 Yes         Yes            Preproce~ Correct
##  3 train/~    0.612     0.388    13 No          No             Preproce~ Correct
##  4 train/~    0.358     0.642    15 Yes         Yes            Preproce~ Correct
##  5 train/~    0.629     0.371    20 No          Yes            Preproce~ Incorr~
##  6 train/~    0.470     0.530    28 Yes         No             Preproce~ Incorr~
##  7 train/~    0.710     0.290    35 No          Yes            Preproce~ Incorr~
##  8 train/~    0.899     0.101    39 No          No             Preproce~ Correct
##  9 train/~    0.582     0.418    40 No          Yes            Preproce~ Incorr~
## 10 train/~    0.802     0.198    46 No          Yes            Preproce~ Incorr~
## # ... with 239 more rows
…
